<?xml version="1.0" encoding="UTF-8"?>
<session version="1.0">
<refactoring comment="Rename resource &apos;Laborator3 - Labirint/maze&apos; to &apos;maze.txt&apos;" description="Rename resource &apos;maze&apos;" flags="7" id="org.eclipse.ltk.core.refactoring.rename.resource" input="maze" name="maze.txt" stamp="1541009347652" updateReferences="true"/>
</session>